[
  {
    "name":"Owen Krafft",
    "email":"owen.krafft@mail.com",
    "online":false
  },
  {
    "name":"Ryan Finn",
    "email":"ryan.finn@mail.com",
    "online":true
  },
  {
    "name":"Joe Cravotta",
    "email":"joe.cravotta@mail.com",
    "online":true
  }
]